✎ บริการติดตั้งเซลบอท บอทสิริ ครบวงจร
✎บริการติดตั้งเซลบอท ลูกเล่นมากมาย
✎เริ่มต้น 200บาทเดือนต่อไป100 บาท
✎ดูแลหลังการติดตั้ง ไม่ทิ้งกัน
✎บริการลิ้งบิน ราคากันเอง
🔒थדಖπู🔒
☞мιи∂ѕєℓfвσтℓмυѕι¢☜
🐯lສืმເట่થ🔝ω൮ণℓざ❍さஆิს(ঝণधஏ์)
🐯ຜບឋந🔝ω൮ণℓざ❍さஆิს
𖡨═════ই͜͡ʕ•ᴥ•ʔ͜͡ই═════𖡨
🐯のန❍ບのနัՁ ω൮ণlສื∂さஆິງ🐯
🐶のန❍ບのနัՁ ຈิ้ງब❍π lŋՁะ🐶
┄┅═ई✤Ťëàмさণधടัथ✤ई═┅┄
𖡨═════ই͜͡ʕ•ᴥ•ʔ͜͡ই═════𖡨
╔════⋬⋆✨✫☪✫✨⋆⋭════╗
👿ωี่थ้∂სთടะΩูत௮່∂👿
ʨิन🔝Ҩʨึ่ს🔝ಖণ؏ஏ์🔝ხծ็ಖ
💘∂∂؏🔝ℓʨ؏🔝ஆีʨণ💘
╚════⋬✨⋆✫☪✫✨⋆⋭════╝

Ꭷั้؏ঝণ؏🔝नั൮ໄຣのઢัப༣ྀ
╔════༺ ͜͡✯͜͡ ͜͡✯͜͡ ༻════╗
༣ྀのန❍பのနัՁनั൮ໄຣのઢัப༣ྀ
༣ྀ™ທีঝసণ؏ຣัゆनั൮ໄຣのઢัப™༣ྀ
╚════༺ ͜͡✯͜͡ ͜͡✯͜͡ ༻════╝
┏ ✦͜͡✶ ➷ 💞 ➹ ✶͜͜͡✦ ┓
꧁°‧✿• ❍ัध∫∫ສບ •✿‧°꧂
 ✾• 19┇08┇2561•✾
┗ ✦͜͡✶ ➷ 💞 ➹ ✶͜͜͡✦ ┛

ю้❂७Ծๅعさุஇທี่နัറ ₦σռց❂νєя
➴͜❥ਘี่Ճণধనุஞທี่ຣั௫ℓʨধஞื้o➴͜❥‮
💖 ωี่જণধసุஏເਫ਼ิ௰ 💖
ℳš➣™ ∫∫❍ʨოণఌౕ่ิʨ ✾™
❦ʨ้۝७ທูਫ਼φัՁ❦
➣͜ധู้ざန้ণ७ℳš

ざ௮ךの௮♨のю४ণধபӘທ🔱Line